2:42 PM 4/14/98

Filename                : apocalypse02.zip (includes apocalypse02.pcx, apocalype02_i.pcx)

Author                  : Oscar Hidalgo (D.J.Stage One)Miami,Fl.
Email Address           : stage1@mediaone.net
Description             : A new Quake2 Male skin
                                               
* Play Information *

Game                    :Quake2 , requires Registered quake2 to use...

===================================================
* Construction *

Programs used           : Paint Shop Pro

This skin I' think needed to be revibe and now it locks pretty dawm good, specially in open-gl. mode please check it out...
       
===========================
Instructions

Install into Quake2/Baseq2/players/male directory and away u go. Select Multiplayer
and then go into the player setup, Select the male model and move along the skins until
you see my apocalypse02 skin...


Enjoy the skin, thank you for using it, and stay alive!!

==================================================


* Copyright *

Authors may NOT use these skins as a base to build additional
skins. And it must not be sold, without permission from the author.

You MAY distribute this ZIP, provided you include this file, with
no modifications.  You may distribute this file in any electronic
format (BBS, Diskette, CD, etc) as long as you include this file 
intact.

In other words "DON'T BREAK THE RULES!!!"

                                                          (STAGE1@GI)