                              Quake2 skin
                               "Firewall"

                             
                      Made by Cosmos in Paintshop Pro
                                04-02-98
                I have been busy creating some clan skins
                but manage to smack this one together inbetween
                             Copyright Cosmos

Homepage:http://users.cybercity.dk/~bdc3842/home.html
E-mail  :bdc3842@vip.cybercity.dk