=======================================================
Date:             13th of January 2001.
file:             sb-gravetga.zip
author:           Sock 
email address:    sock@planetquake.com
URL:              http://www.planetquake.com/simland

=======================================================

   
Enjoy
Sock